test_run_dir/InstructionFetch_of_Single_Cycle_CPU_should_fetch_instruction/InstructionFetch.vcd
$date
2023-11-30T16:21+0000
$end
$version
0.2
$end
$comment

$end
$timescale 1ns  $end
$scope module InstructionFetch $end
 $var wire 1 ! io_jump_flag_id $end
 $var wire 1 " clock $end
 $var wire 1 # io_instruction_valid $end
 $var wire 32 $ io_instruction_address $end
 $var wire 32 % pc $end
 $var wire 32 & io_instruction_read_data $end
 $var wire 32 ' io_instruction $end
 $var wire 1 ( reset $end
 $var wire 32 ) io_jump_address_id $end
$upscope $end
$enddefinitions $end
$dumpvars
0!
0"
0#
b00000000000000000000000000000000 '
b00000000000000000000000000000000 &
b00000000000000000000000000000000 )
0(
b00000000000000000000000000000000 %
b00000000000000000000000000000000 $
$end
#0
b00000000000000000000000000010011 '
1(
#1
1"
b00000000000000000001000000000000 $
b00000000000000000001000000000000 %
#6
1!
0"
1#
b00000000000000000000000000000000 '
0(
b00000000000000000001000000000000 )
#11
1"
#16
0"
#21
1"
#26
0!
0"
#31
1"
b00000000000000000001000000000100 $
b00000000000000000001000000000100 %
#36
1!
0"
#41
1"
b00000000000000000001000000000000 $
b00000000000000000001000000000000 %
#46
0!
0"
#51
1"
b00000000000000000001000000000100 $
b00000000000000000001000000000100 %
#56
0"
#61
1"
b00000000000000000001000000001000 $
b00000000000000000001000000001000 %
#66
0"
#71
1"
b00000000000000000001000000001100 $
b00000000000000000001000000001100 %
#76
1!
0"
#81
1"
b00000000000000000001000000000000 $
b00000000000000000001000000000000 %
#86
0"
#91
1"
#96
0!
0"
#101
1"
b00000000000000000001000000000100 $
b00000000000000000001000000000100 %
#106
1!
0"
#111
1"
b00000000000000000001000000000000 $
b00000000000000000001000000000000 %
#116
0!
0"
#121
1"
b00000000000000000001000000000100 $
b00000000000000000001000000000100 %
#126
0"
#131
1"
b00000000000000000001000000001000 $
b00000000000000000001000000001000 %
#136
1!
0"
#141
1"
b00000000000000000001000000000000 $
b00000000000000000001000000000000 %
#146
0"
#151
1"
#156
0"
#161
1"
#166
0!
0"
#171
1"
b00000000000000000001000000000100 $
b00000000000000000001000000000100 %
#176
0"
#181
1"
b00000000000000000001000000001000 $
b00000000000000000001000000001000 %
#186
0"
#191
1"
b00000000000000000001000000001100 $
b00000000000000000001000000001100 %
#196
1!
0"
#201
1"
b00000000000000000001000000000000 $
b00000000000000000001000000000000 %
#206
0!
0"
#211
1"
b00000000000000000001000000000100 $
b00000000000000000001000000000100 %
#216
1!
0"
#221
1"
b00000000000000000001000000000000 $
b00000000000000000001000000000000 %
#226
0"
#231
1"
#236
0!
0"
#241
1"
b00000000000000000001000000000100 $
b00000000000000000001000000000100 %
#246
1!
0"
#251
1"
b00000000000000000001000000000000 $
b00000000000000000001000000000000 %
#256
0!
0"
#261
1"
b00000000000000000001000000000100 $
b00000000000000000001000000000100 %
#266
1!
0"
#271
1"
b00000000000000000001000000000000 $
b00000000000000000001000000000000 %
#276
0"
#281
1"
#286
0!
0"
#291
1"
b00000000000000000001000000000100 $
b00000000000000000001000000000100 %
#296
0"
#301
1"
b00000000000000000001000000001000 $
b00000000000000000001000000001000 %
#306
1!
0"
#311
1"
b00000000000000000001000000000000 $
b00000000000000000001000000000000 %
#316
0"
#321
1"
#326
0"
#331
1"
#336
0"
#341
1"
#346
0"
#351
1"
#356
0!
0"
#361
1"
b00000000000000000001000000000100 $
b00000000000000000001000000000100 %
#366
0"
#371
1"
b00000000000000000001000000001000 $
b00000000000000000001000000001000 %
#376
0"
#381
1"
b00000000000000000001000000001100 $
b00000000000000000001000000001100 %
#386
1!
0"
#391
1"
b00000000000000000001000000000000 $
b00000000000000000001000000000000 %
#396
0!
0"
#401
1"
b00000000000000000001000000000100 $
b00000000000000000001000000000100 %
#406
1!
0"
#411
1"
b00000000000000000001000000000000 $
b00000000000000000001000000000000 %
#416
0"
#421
1"
#426
0"
#431
1"
#436
0!
0"
#441
1"
b00000000000000000001000000000100 $
b00000000000000000001000000000100 %
#446
1!
0"
#451
1"
b00000000000000000001000000000000 $
b00000000000000000001000000000000 %
#456
0"
#461
1"
#466
0!
0"
#471
1"
b00000000000000000001000000000100 $
b00000000000000000001000000000100 %
#476
0"
#481
1"
b00000000000000000001000000001000 $
b00000000000000000001000000001000 %
#486
0"
#491
1"
b00000000000000000001000000001100 $
b00000000000000000001000000001100 %
#496
1!
0"
#501
1"
b00000000000000000001000000000000 $
b00000000000000000001000000000000 %
#506
0!
0"
#511
1"
b00000000000000000001000000000100 $
b00000000000000000001000000000100 %
#516
0"
#521
1"
b00000000000000000001000000001000 $
b00000000000000000001000000001000 %
#526
1!
0"
#531
1"
b00000000000000000001000000000000 $
b00000000000000000001000000000000 %
#536
0"
#541
1"
#546
0"
#551
1"
#556
0"
#561
1"
#566
0!
0"
#571
1"
b00000000000000000001000000000100 $
b00000000000000000001000000000100 %
#576
1!
0"
#581
1"
b00000000000000000001000000000000 $
b00000000000000000001000000000000 %
#586
0!
0"
#591
1"
b00000000000000000001000000000100 $
b00000000000000000001000000000100 %
#596
0"
#601
1"
b00000000000000000001000000001000 $
b00000000000000000001000000001000 %
#606
0"
#611
1"
b00000000000000000001000000001100 $
b00000000000000000001000000001100 %
#616
0"
#621
1"
b00000000000000000001000000010000 $
b00000000000000000001000000010000 %
#626
0"
#631
1"
b00000000000000000001000000010100 $
b00000000000000000001000000010100 %
#636
0"
#641
1"
b00000000000000000001000000011000 $
b00000000000000000001000000011000 %
#646
0"
#651
1"
b00000000000000000001000000011100 $
b00000000000000000001000000011100 %
#656
0"
#661
1"
b00000000000000000001000000100000 $
b00000000000000000001000000100000 %
#666
0"
#671
1"
b00000000000000000001000000100100 $
b00000000000000000001000000100100 %
#676
1!
0"
#681
1"
b00000000000000000001000000000000 $
b00000000000000000001000000000000 %
#686
0!
0"
#691
1"
b00000000000000000001000000000100 $
b00000000000000000001000000000100 %
#696
1!
0"
#701
1"
b00000000000000000001000000000000 $
b00000000000000000001000000000000 %
#706
0!
0"
#711
1"
b00000000000000000001000000000100 $
b00000000000000000001000000000100 %
#716
1!
0"
#721
1"
b00000000000000000001000000000000 $
b00000000000000000001000000000000 %
#726
0!
0"
#731
1"
b00000000000000000001000000000100 $
b00000000000000000001000000000100 %
#736
0"
#741
1"
b00000000000000000001000000001000 $
b00000000000000000001000000001000 %
#746
1!
0"
#751
1"
b00000000000000000001000000000000 $
b00000000000000000001000000000000 %
#756
0"
#761
1"
#766
0!
0"
#771
1"
b00000000000000000001000000000100 $
b00000000000000000001000000000100 %
#776
0"
#781
1"
b00000000000000000001000000001000 $
b00000000000000000001000000001000 %
#786
1!
0"
#791
1"
b00000000000000000001000000000000 $
b00000000000000000001000000000000 %
#796
0!
0"
#801
1"
b00000000000000000001000000000100 $
b00000000000000000001000000000100 %
#806
0"
#811
1"
b00000000000000000001000000001000 $
b00000000000000000001000000001000 %
#816
1!
0"
#821
1"
b00000000000000000001000000000000 $
b00000000000000000001000000000000 %
#826
0"
#831
1"
#836
0"
#841
1"
#846
0!
0"
#851
1"
b00000000000000000001000000000100 $
b00000000000000000001000000000100 %
#856
0"
#861
1"
b00000000000000000001000000001000 $
b00000000000000000001000000001000 %
#866
0"
#871
1"
b00000000000000000001000000001100 $
b00000000000000000001000000001100 %
#876
0"
#881
1"
b00000000000000000001000000010000 $
b00000000000000000001000000010000 %
#886
1!
0"
#891
1"
b00000000000000000001000000000000 $
b00000000000000000001000000000000 %
#896
0!
0"
#901
1"
b00000000000000000001000000000100 $
b00000000000000000001000000000100 %
#906
0"
#911
1"
b00000000000000000001000000001000 $
b00000000000000000001000000001000 %
#916
0"
#921
1"
b00000000000000000001000000001100 $
b00000000000000000001000000001100 %
#926
1!
0"
#931
1"
b00000000000000000001000000000000 $
b00000000000000000001000000000000 %
#936
0!
0"
#941
1"
b00000000000000000001000000000100 $
b00000000000000000001000000000100 %
#946
0"
#951
1"
b00000000000000000001000000001000 $
b00000000000000000001000000001000 %
#956
0"
#961
1"
b00000000000000000001000000001100 $
b00000000000000000001000000001100 %
#966
0"
#971
1"
b00000000000000000001000000010000 $
b00000000000000000001000000010000 %
#976
0"
#981
1"
b00000000000000000001000000010100 $
b00000000000000000001000000010100 %
#986
1!
0"
#991
1"
b00000000000000000001000000000000 $
b00000000000000000001000000000000 %
#996
0"
#1001
1"
#1006
0"
#1011
1"
#1016
0!
0"
0#
b00000000000000000000000000000000 )
