test_run_dir/Execution_of_Single_Cycle_CPU_should_execute_correctly/Execute.vcd
$date
2023-11-30T16:36+0000
$end
$version
0.2
$end
$comment

$end
$timescale 1ns  $end
$scope module Execute $end
 $var wire 32 ! io_instruction_address $end
 $var wire 1 # reset $end
 $var wire 32 $ io_instruction $end
 $var wire 1 & io_aluop2_source $end
 $var wire 1 ' io_if_jump_flag $end
 $var wire 1 ( alu_ctrl $end
 $var wire 32 * io_mem_alu_result $end
 $var wire 7 , opcode $end
 $var wire 32 - io_immediate $end
 $var wire 32 . io_reg2_data $end
 $var wire 32 / io_if_jump_address $end
 $var wire 1 0 alu $end
 $var wire 1 1 clock $end
 $var wire 3 2 funct3 $end
 $var wire 7 3 funct7 $end
 $var wire 1 5 io_aluop1_source $end
 $var wire 32 9 io_reg1_data $end
  $scope module alu_ctrl $end
   $var wire 7 " io_opcode $end
   $var wire 3 ) io_funct3 $end
   $var wire 7 + io_funct7 $end
   $var wire 4 6 io_alu_funct $end
  $upscope $end
  $scope module alu $end
   $var wire 4 % io_func $end
   $var wire 32 4 io_result $end
   $var wire 32 7 io_op1 $end
   $var wire 32 8 io_op2 $end
  $upscope $end
$upscope $end
$enddefinitions $end
$dumpvars
00
01
b00000000000000000000000000000000 *
b00000000000000000000000000000000 -
05
b00000000000000000000000000000000 $
b00000000000000000000000000000000 !
b00000000000000000000000000000000 7
b000 2
b00000000000000000000000000000000 9
b00000000000000000000000000000000 8
b0000000 3
b00000000000000000000000000000000 4
b00000000000000000000000000000000 /
b00000000000000000000000000000000 .
b0000000 +
b0000 %
b000 )
b0000000 ,
b0000000 "
0#
0&
0'
0(
b0000 6
$end
#0
1#
#1
11
#6
b0110011 "
0#
b00000000000100010000000110110011 $
b0001 %
b00010111011011000100010010110110 *
b0110011 ,
b00000010110010101101000111000101 .
01
b00010111011011000100010010110110 4
b0001 6
b00010100101000010111001011110001 7
b00000010110010101101000111000101 8
b00010100101000010111001011110001 9
#11
11
#16
01
b00100111110011110100011101110100 4
b00001111100110111110000100000011 7
b00011000001100110110011001110001 8
b00001111100110111110000100000011 9
b00100111110011110100011101110100 *
b00011000001100110110011001110001 .
#21
11
#26
01
b00000101110001011011001010000000 4
b00000001110110101000100011100001 7
b00000011111010110010100110011111 8
b00000001110110101000100011100001 9
b00000101110001011011001010000000 *
b00000011111010110010100110011111 .
#31
11
#36
01
b00100010001011110101001000010101 4
b00010001010001010110111101010110 7
b00010000111010011110001010111111 8
b00010001010001010110111101010110 9
b00100010001011110101001000010101 *
b00010000111010011110001010111111 .
#41
11
#46
01
b00001111110100100011101101000000 4
b00001110101001000000000110101001 7
b00000001001011100011100110010111 8
b00001110101001000000000110101001 9
b00001111110100100011101101000000 *
b00000001001011100011100110010111 .
#51
11
#56
01
b00010010011110010101101010101101 4
b00001101100011000110111010011001 7
b00000100111011001110110000010100 8
b00001101100011000110111010011001 9
b00010010011110010101101010101101 *
b00000100111011001110110000010100 .
#61
11
#66
01
b00001111101001110110100110101001 4
b00000001011110000100011111011100 7
b00001110001011110010000111001101 8
b00000001011110000100011111011100 9
b00001111101001110110100110101001 *
b00001110001011110010000111001101 .
#71
11
#76
01
b00100000110100100010000110000000 4
b00001111001110111011110001101000 7
b00010001100101100110010100011000 8
b00001111001110111011110001101000 9
b00100000110100100010000110000000 *
b00010001100101100110010100011000 .
#81
11
#86
01
b00010101001100000110010010001011 4
b00000111100001100010110110000011 7
b00001101101010100011011100001000 8
b00000111100001100010110110000011 9
b00010101001100000110010010001011 *
b00001101101010100011011100001000 .
#91
11
#96
01
b00100001111001100100000000111110 4
b00010100010101111010111100110011 7
b00001101100011101001000100001011 8
b00010100010101111010111100110011 9
b00100001111001100100000000111110 *
b00001101100011101001000100001011 .
#101
11
#106
01
b00010101000011111011101011011000 4
b00001110110110110011001100011001 7
b00000110001101001000011110111111 8
b00001110110110110011001100011001 9
b00010101000011111011101011011000 *
b00000110001101001000011110111111 .
#111
11
#116
01
b00011110001101001101011010011001 4
b00010101011010010001001010001010 7
b00001000110010111100010000001111 8
b00010101011010010001001010001010 9
b00011110001101001101011010011001 *
b00001000110010111100010000001111 .
#121
11
#126
01
b00011100110110000110011100010010 4
b00001100110000010011010100101001 7
b00010000000101110011000111101001 8
b00001100110000010011010100101001 9
b00011100110110000110011100010010 *
b00010000000101110011000111101001 .
#131
11
#136
01
b00010001100100000001000011011100 4
b00000101100111011101110000011111 7
b00001011111100100011010010111101 8
b00000101100111011101110000011111 9
b00010001100100000001000011011100 *
b00001011111100100011010010111101 .
#141
11
#146
01
b00001001011110010010110100000100 4
b00000110111110011011110001110010 7
b00000010011111110111000010010010 8
b00000110111110011011110001110010 9
b00001001011110010010110100000100 *
b00000010011111110111000010010010 .
#151
11
#156
01
b00010100011110010010101010000110 4
b00010011101110101001010100000000 7
b00000000101111101001010110000110 8
b00010011101110101001010100000000 9
b00010100011110010010101010000110 *
b00000000101111101001010110000110 .
#161
11
#166
01
b00011100110000100011011110100101 4
b00010101000010100010110110011000 7
b00000111101110000000101000001101 8
b00010101000010100010110110011000 9
b00011100110000100011011110100101 *
b00000111101110000000101000001101 .
#171
11
#176
01
b00010101010100110101011010100101 4
b00010001001111111111010100011001 7
b00000100000100110110000110001100 8
b00010001001111111111010100011001 9
b00010101010100110101011010100101 *
b00000100000100110110000110001100 .
#181
11
#186
01
b00100111110010110010000010111000 4
b00010000011010010011111100011110 7
b00010111011000011110000110011010 8
b00010000011010010011111100011110 9
b00100111110010110010000010111000 *
b00010111011000011110000110011010 .
#191
11
#196
01
b00101011110001101000011000101110 4
b00011001000101100110110110011011 7
b00010010101100000001100010010011 8
b00011001000101100110110110011011 9
b00101011110001101000011000101110 *
b00010010101100000001100010010011 .
#201
11
#206
01
b00100100100110011011001011010110 4
b00010110101111111100100000110010 7
b00001101110110011110101010100100 8
b00010110101111111100100000110010 9
b00100100100110011011001011010110 *
b00001101110110011110101010100100 .
#211
11
#216
01
b00001011111011101110011010010011 4
b00000101011011110111000100100000 7
b00000110011111110111010101110011 8
b00000101011011110111000100100000 9
b00001011111011101110011010010011 *
b00000110011111110111010101110011 .
#221
11
#226
01
b00010011001111010111000100101111 4
b00000110100111000100010101100100 7
b00001100101000010010101111001011 8
b00000110100111000100010101100100 9
b00010011001111010111000100101111 *
b00001100101000010010101111001011 .
#231
11
#236
01
b00011011010101110010111101011011 4
b00001001001100111001101000001010 7
b00010010001000111001010101010001 8
b00001001001100111001101000001010 9
b00011011010101110010111101011011 *
b00010010001000111001010101010001 .
#241
11
#246
01
b00100110101100010110111011011010 4
b00011001011001100000000100110111 7
b00001101010010110110110110100011 8
b00011001011001100000000100110111 9
b00100110101100010110111011011010 *
b00001101010010110110110110100011 .
#251
11
#256
01
b00011010110100101100010010101010 4
b00010011011000000010101010010100 7
b00000111011100101001101000010110 8
b00010011011000000010101010010100 9
b00011010110100101100010010101010 *
b00000111011100101001101000010110 .
#261
11
#266
01
b00011010101100100101011111010000 4
b00000010100000000111001101001100 7
b00011000001100011110010010000100 8
b00000010100000000111001101001100 9
b00011010101100100101011111010000 *
b00011000001100011110010010000100 .
#271
11
#276
01
b00010111001110111100010110011100 4
b00010110110111011000000001011110 7
b00000000010111100100010100111110 8
b00010110110111011000000001011110 9
b00010111001110111100010110011100 *
b00000000010111100100010100111110 .
#281
11
#286
01
b00010110110100010101011001100000 4
b00010011000010100001011111011111 7
b00000011110001110011111010000001 8
b00010011000010100001011111011111 9
b00010110110100010101011001100000 *
b00000011110001110011111010000001 .
#291
11
#296
01
b00101100101000100111001101011000 4
b00010111110101001101100110000101 7
b00010100110011011001100111010011 8
b00010111110101001101100110000101 9
b00101100101000100111001101011000 *
b00010100110011011001100111010011 .
#301
11
#306
01
b00010100100110111100111110001110 4
b00000101000110011101010001100111 7
b00001111100000011111101100100111 8
b00000101000110011101010001100111 9
b00010100100110111100111110001110 *
b00001111100000011111101100100111 .
#311
11
#316
01
b00100110001101100110100101000110 4
b00010001001111000011101000101101 7
b00010100111110100010111100011001 8
b00010001001111000011101000101101 9
b00100110001101100110100101000110 *
b00010100111110100010111100011001 .
#321
11
#326
01
b00001011111011000101110110000001 4
b00001010010101010000010001101000 7
b00000001100101110101100100011001 8
b00001010010101010000010001101000 9
b00001011111011000101110110000001 *
b00000001100101110101100100011001 .
#331
11
#336
01
b00110000011110101100111100100110 4
b00010111110001111000111011110001 7
b00011000101100110100000000110101 8
b00010111110001111000111011110001 9
b00110000011110101100111100100110 *
b00011000101100110100000000110101 .
#341
11
#346
01
b00101001001000111010100100011100 4
b00010011111000000001110111001111 7
b00010101010000111000101101001101 8
b00010011111000000001110111001111 9
b00101001001000111010100100011100 *
b00010101010000111000101101001101 .
#351
11
#356
01
b00100011100011111101101001000110 4
b00010101010001110111001011111000 7
b00001110010010000110011101001110 8
b00010101010001110111001011111000 9
b00100011100011111101101001000110 *
b00001110010010000110011101001110 .
#361
11
#366
01
b00010101100011100010111000110111 4
b00000010100111000111001111110000 7
b00010010111100011011101001000111 8
b00000010100111000111001111110000 9
b00010101100011100010111000110111 *
b00010010111100011011101001000111 .
#371
11
#376
01
b00010101101110000010001111111111 4
b00010001011000011111011011011011 7
b00000100010101100010110100100100 8
b00010001011000011111011011011011 9
b00010101101110000010001111111111 *
b00000100010101100010110100100100 .
#381
11
#386
01
b00010000101100110111001111010101 4
b00000100101010100111101111101001 7
b00001100000010001111011111101100 8
b00000100101010100111101111101001 9
b00010000101100110111001111010101 *
b00001100000010001111011111101100 .
#391
11
#396
01
b00101010010001000011010111001110 4
b00011000010011111101010111110111 7
b00010001111101000101111111010111 8
b00011000010011111101010111110111 9
b00101010010001000011010111001110 *
b00010001111101000101111111010111 .
#401
11
#406
01
b00110001000010000000001101111011 4
b00011001001111010101011110110100 7
b00010111110010101010101111000111 8
b00011001001111010101011110110100 9
b00110001000010000000001101111011 *
b00010111110010101010101111000111 .
#411
11
#416
01
b00010011100110011011011010111101 4
b00010010011101001010110111001000 7
b00000001001001010000100011110101 8
b00010010011101001010110111001000 9
b00010011100110011011011010111101 *
b00000001001001010000100011110101 .
#421
11
#426
01
b00011001010010011011100011111101 4
b00011000011111111011110101000101 7
b00000000110010011111101110111000 8
b00011000011111111011110101000101 9
b00011001010010011011100011111101 *
b00000000110010011111101110111000 .
#431
11
#436
01
b00000110101101000101001111011110 4
b00000110101010100101101100010011 7
b00000000000010011111100011001011 8
b00000110101010100101101100010011 9
b00000110101101000101001111011110 *
b00000000000010011111100011001011 .
#441
11
#446
01
b00010101011001001010101001111010 4
b00001011011001000001110010001011 7
b00001010000000001000110111101111 8
b00001011011001000001110010001011 9
b00010101011001001010101001111010 *
b00001010000000001000110111101111 .
#451
11
#456
01
b00011001110110101111000001100111 4
b00010110001010000001010111101101 7
b00000011101100101101101001111010 8
b00010110001010000001010111101101 9
b00011001110110101111000001100111 *
b00000011101100101101101001111010 .
#461
11
#466
01
b00101001001101111111101000101001 4
b00010101000101111110010100110111 7
b00010100001000000001010011110010 8
b00010101000101111110010100110111 9
b00101001001101111111101000101001 *
b00010100001000000001010011110010 .
#471
11
#476
01
b00011011100001011011100001110101 4
b00010001001000010100100100000100 7
b00001010011001000110111101110001 8
b00010001001000010100100100000100 9
b00011011100001011011100001110101 *
b00001010011001000110111101110001 .
#481
11
#486
01
b00011101111010011111101001110111 4
b00010010101111011010010100010110 7
b00001011001011000101010101100001 8
b00010010101111011010010100010110 9
b00011101111010011111101001110111 *
b00001011001011000101010101100001 .
#491
11
#496
01
b00100111010101100001100011000110 4
b00010011011101010110101110101110 7
b00010011111000001010110100011000 8
b00010011011101010110101110101110 9
b00100111010101100001100011000110 *
b00010011111000001010110100011000 .
#501
11
#506
01
b00101011011111010011110101000000 4
b00010010011110110000010001100110 7
b00011001000000100011100011011010 8
b00010010011110110000010001100110 9
b00101011011111010011110101000000 *
b00011001000000100011100011011010 .
#511
11
#516
01
b00101111101010111111111110111010 4
b00010110110011010100100011110010 7
b00011000110111101011011011001000 8
b00010110110011010100100011110010 9
b00101111101010111111111110111010 *
b00011000110111101011011011001000 .
#521
11
#526
01
b00010001110000111010000011111011 4
b00000111100110101100000110010001 7
b00001010001010001101111101101010 8
b00000111100110101100000110010001 9
b00010001110000111010000011111011 *
b00001010001010001101111101101010 .
#531
11
#536
01
b00010101010110101011010001011101 4
b00001001001101000101111101111010 7
b00001100001001100101010011100011 8
b00001001001101000101111101111010 9
b00010101010110101011010001011101 *
b00001100001001100101010011100011 .
#541
11
#546
01
b00010000000110100001011011000001 4
b00000100010111000110111010100001 7
b00001011101111011010100000100000 8
b00000100010111000110111010100001 9
b00010000000110100001011011000001 *
b00001011101111011010100000100000 .
#551
11
#556
01
b00101001101011101101001011000101 4
b00010101101100001010000110010011 7
b00010011111111100011000100110010 8
b00010101101100001010000110010011 9
b00101001101011101101001011000101 *
b00010011111111100011000100110010 .
#561
11
#566
01
b00010101100001100100011010000101 4
b00000010010000101110011010001111 7
b00010011010000110101111111110110 8
b00000010010000101110011010001111 9
b00010101100001100100011010000101 *
b00010011010000110101111111110110 .
#571
11
#576
01
b00011100111010111100000000100011 4
b00000011101101101001101011110000 7
b00011001001101010010010100110011 8
b00000011101101101001101011110000 9
b00011100111010111100000000100011 *
b00011001001101010010010100110011 .
#581
11
#586
01
b00101100100110110111110011100011 4
b00010100100111110110110001000011 7
b00010111111111000001000010100000 8
b00010100100111110110110001000011 9
b00101100100110110111110011100011 *
b00010111111111000001000010100000 .
#591
11
#596
01
b00100111101010111001100011011111 4
b00011000110011000110100101110111 7
b00001110110111110010111101101000 8
b00011000110011000110100101110111 9
b00100111101010111001100011011111 *
b00001110110111110010111101101000 .
#601
11
#606
01
b00100000111001000110100011111001 4
b00001111001010100101000001100101 7
b00010001101110100001100010010100 8
b00001111001010100101000001100101 9
b00100000111001000110100011111001 *
b00010001101110100001100010010100 .
#611
11
#616
01
b00100100010110000010101110111010 4
b00010110010110101000010000110000 7
b00001101111111011010011110001010 8
b00010110010110101000010000110000 9
b00100100010110000010101110111010 *
b00001101111111011010011110001010 .
#621
11
#626
01
b00001101110101111010000011101011 4
b00000111101011101000101101001000 7
b00000110001010010001010110100011 8
b00000111101011101000101101001000 9
b00001101110101111010000011101011 *
b00000110001010010001010110100011 .
#631
11
#636
01
b00000101101010111101100101001000 4
b00000101100010110011100110011100 7
b00000000001000001001111110101100 8
b00000101100010110011100110011100 9
b00000101101010111101100101001000 *
b00000000001000001001111110101100 .
#641
11
#646
01
b00100110001000110000100111000010 4
b00010111010011101100011111101001 7
b00001110110101000100000111011001 8
b00010111010011101100011111101001 9
b00100110001000110000100111000010 *
b00001110110101000100000111011001 .
#651
11
#656
01
b00000001010100100001100101110001 4
b00000000111010101110010100110000 7
b00000000011001110011010001000001 8
b00000000111010101110010100110000 9
b00000001010100100001100101110001 *
b00000000011001110011010001000001 .
#661
11
#666
01
b00010110100110011111111111001001 4
b00000000100110001011101100100110 7
b00010110000000010100010010100011 8
b00000000100110001011101100100110 9
b00010110100110011111111111001001 *
b00010110000000010100010010100011 .
#671
11
#676
01
b00100011101000111100111010000010 4
b00011001011001101010001100110100 7
b00001010001111010010101101001110 8
b00011001011001101010001100110100 9
b00100011101000111100111010000010 *
b00001010001111010010101101001110 .
#681
11
#686
01
b00010101001010000100000001010110 4
b00000101001010110100001100111000 7
b00001111111111001111110100011110 8
b00000101001010110100001100111000 9
b00010101001010000100000001010110 *
b00001111111111001111110100011110 .
#691
11
#696
01
b00110000010111000101111001111000 4
b00010111100100000011110101100100 7
b00011000110011000010000100010100 8
b00010111100100000011110101100100 9
b00110000010111000101111001111000 *
b00011000110011000010000100010100 .
#701
11
#706
01
b00010010000110110110011101101100 4
b00001000000100101001011110010101 7
b00001010000010001100111111010111 8
b00001000000100101001011110010101 9
b00010010000110110110011101101100 *
b00001010000010001100111111010111 .
#711
11
#716
01
b00011011001000011001111011000001 4
b00010000010101011111111001101100 7
b00001010110010111010000001010101 8
b00010000010101011111111001101100 9
b00011011001000011001111011000001 *
b00001010110010111010000001010101 .
#721
11
#726
01
b00010111010101000001101100111101 4
b00000011100001000000101000000011 7
b00010011110100000001000100111010 8
b00000011100001000000101000000011 9
b00010111010101000001101100111101 *
b00010011110100000001000100111010 .
#731
11
#736
01
b00011110001111111110001111011111 4
b00010011011101110011110011100010 7
b00001010110010001010011011111101 8
b00010011011101110011110011100010 9
b00011110001111111110001111011111 *
b00001010110010001010011011111101 .
#741
11
#746
01
b00010111110001100011101100101111 4
b00010000110000000100110100101011 7
b00000111000001011110111000000100 8
b00010000110000000100110100101011 9
b00010111110001100011101100101111 *
b00000111000001011110111000000100 .
#751
11
#756
01
b00100001010110000011101010011001 4
b00010111100101111010111011011000 7
b00001001110000001000101111000001 8
b00010111100101111010111011011000 9
b00100001010110000011101010011001 *
b00001001110000001000101111000001 .
#761
11
#766
01
b00101010011101001111101010010111 4
b00010111110010010011111011011000 7
b00010010101010111011101110111111 8
b00010111110010010011111011011000 9
b00101010011101001111101010010111 *
b00010010101010111011101110111111 .
#771
11
#776
01
b00011010100101010111110011001001 4
b00001101011100010110111101110110 7
b00001101001001000000110101010011 8
b00001101011100010110111101110110 9
b00011010100101010111110011001001 *
b00001101001001000000110101010011 .
#781
11
#786
01
b00101000101011101100111010110001 4
b00011001100100111011110000111111 7
b00001111000110110001001001110010 8
b00011001100100111011110000111111 9
b00101000101011101100111010110001 *
b00001111000110110001001001110010 .
#791
11
#796
01
b00011100100000010000100100011100 4
b00010010101011101000000000100101 7
b00001001110100101000100011110111 8
b00010010101011101000000000100101 9
b00011100100000010000100100011100 *
b00001001110100101000100011110111 .
#801
11
#806
01
b00001111101000001000000100001011 4
b00000100011000011000000101101100 7
b00001011001111101111111110011111 8
b00000100011000011000000101101100 9
b00001111101000001000000100001011 *
b00001011001111101111111110011111 .
#811
11
#816
01
b00001110101001100001111011100110 4
b00000101101001100011110101001010 7
b00001000111111111110000110011100 8
b00000101101001100011110101001010 9
b00001110101001100001111011100110 *
b00001000111111111110000110011100 .
#821
11
#826
01
b00001110010001100110111000110000 4
b00000111100110010101000110010001 7
b00000110101011010001110010011111 8
b00000111100110010101000110010001 9
b00001110010001100110111000110000 *
b00000110101011010001110010011111 .
#831
11
#836
01
b00011000111001101110000111101001 4
b00001111000110110100010001010000 7
b00001001110010111001110110011001 8
b00001111000110110100010001010000 9
b00011000111001101110000111101001 *
b00001001110010111001110110011001 .
#841
11
#846
01
b00010110111000101111100101010110 4
b00000111011110011100101110011000 7
b00001111011010010010110110111110 8
b00000111011110011100101110011000 9
b00010110111000101111100101010110 *
b00001111011010010010110110111110 .
#851
11
#856
01
b00100001010011001100010011011000 4
b00001011001111100101010000100011 7
b00010110000011100111000010110101 8
b00001011001111100101010000100011 9
b00100001010011001100010011011000 *
b00010110000011100111000010110101 .
#861
11
#866
01
b00001100010011000000010101000011 4
b00001001000101111010110001100111 7
b00000011001101000101100011011100 8
b00001001000101111010110001100111 9
b00001100010011000000010101000011 *
b00000011001101000101100011011100 .
#871
11
#876
01
b00011011101001001111110011000011 4
b00001110010111000010111111000011 7
b00001101010010001100110100000000 8
b00001110010111000010111111000011 9
b00011011101001001111110011000011 *
b00001101010010001100110100000000 .
#881
11
#886
01
b00010101010100001001101001101011 4
b00001001110011011110001101001110 7
b00001011100000101011011100011101 8
b00001001110011011110001101001110 9
b00010101010100001001101001101011 *
b00001011100000101011011100011101 .
#891
11
#896
01
b00011010011111000011010011000000 4
b00001000100000111101111100110000 7
b00010001111110000101010110010000 8
b00001000100000111101111100110000 9
b00011010011111000011010011000000 *
b00010001111110000101010110010000 .
#901
11
#906
01
b00011100001100001110000101111010 4
b00010001110101110110001101001001 7
b00001010010110010111111000110001 8
b00010001110101110110001101001001 9
b00011100001100001110000101111010 *
b00001010010110010111111000110001 .
#911
11
#916
01
b00010100100101110000101001110110 4
b00001001011000101100001100010010 7
b00001011001101000100011101100100 8
b00001001011000101100001100010010 9
b00010100100101110000101001110110 *
b00001011001101000100011101100100 .
#921
11
#926
01
b00011101001101001101010011001111 4
b00001101000100001111011001010100 7
b00010000001000111101111001111011 8
b00001101000100001111011001010100 9
b00011101001101001101010011001111 *
b00010000001000111101111001111011 .
#931
11
#936
01
b00000110111010010000101110011001 4
b00000100111110000100011001110110 7
b00000001111100001100010100100011 8
b00000100111110000100011001110110 9
b00000110111010010000101110011001 *
b00000001111100001100010100100011 .
#941
11
#946
01
b00011110110100101100111010101110 4
b00001101100101000011111011111000 7
b00010001001111101000111110110110 8
b00001101100101000011111011111000 9
b00011110110100101100111010101110 *
b00010001001111101000111110110110 .
#951
11
#956
01
b00010010101100010110101100001010 4
b00001000111010110011000111000010 7
b00001001110001100011100101001000 8
b00001000111010110011000111000010 9
b00010010101100010110101100001010 *
b00001001110001100011100101001000 .
#961
11
#966
01
b00010010101000111100011010101011 4
b00000100110100000010110110010101 7
b00001101110100111001100100010110 8
b00000100110100000010110110010101 9
b00010010101000111100011010101011 *
b00001101110100111001100100010110 .
#971
11
#976
01
b00010110010001000010111010001110 4
b00010000101011111011010110101110 7
b00000101100101000111100011100000 8
b00010000101011111011010110101110 9
b00010110010001000010111010001110 *
b00000101100101000111100011100000 .
#981
11
#986
01
b00100100000110111000101000111100 4
b00010110101000000001011001011010 7
b00001101011110110111001111100010 8
b00010110101000000001011001011010 9
b00100100000110111000101000111100 *
b00001101011110110111001111100010 .
#991
11
#996
01
b00011000000111111100111011110100 4
b00000100110110011110111101011110 7
b00010011010001011101111110010110 8
b00000100110110011110111101011110 9
b00011000000111111100111011110100 *
b00010011010001011101111110010110 .
#1001
11
#1006
01
b00001110101101111000000100010100 4
b00001000000100101101100101001000 7
b00000110101001001010011111001100 8
b00001000000100101101100101001000 9
b00001110101101111000000100010100 *
b00000110101001001010011111001100 .
#1011
11
#1016
b00000000000000000000000000000010 !
b1100011 "
b00000000001000001000000101100011 $
1&
b00000000000000000000000000000100 *
b1100011 ,
b00000000000000000000000000000010 -
b00000000000000000000000000000100 /
01
b00000000000000000000000000000100 4
15
b00000000000000000000000000000010 7
b00000000000000000000000000000010 8
#1021
11
#1026
01
1'
b00000000000000000000000000001001 9
b00000000000000000000000000001001 .
#1031
11
#1036
01
0'
b00000000000000000000000000010011 .
#1041
11
#1046
b00000000000000000000000000000000 !
01
b00000000000000000000000000000000 $
05
0&
b00000000000000000000000000000000 9
b00000000000000000000000000000000 -
b00000000000000000000000000000000 .
